Week 3 Answers (0717) – 2026 基礎數量方法 TA Session
…
Use the summarize() function to calculate the total salary spent by each team using sum(). Name the calculated column total_salary.

Use the arrange() function to sort the observations by total_salary in descending order.

Assign the result to a variable called team_salary and print it.

team_salary <- mlb %>%
  group_by(team) %>%
  summarize(total_salary = sum(salary)) %>%
  arrange(desc(total_salary))

print(team_salary)

# A tibble: 30 × 2
   team                  total_salary
   <chr>                        <dbl>
 1 New York Yankees           206333.
 2 Boston Red Sox             162447.
 3 Chicago Cubs               146609 
 4 Philadelphia Phillies      141928.
 5 New York Mets              134423.
 6 Detroit Tigers             122865.
 7 Chicago White Sox          105530 
 8 Los Angeles Angeles        104964.
 9 San Francisco Giants        98641.
10 Minnesota Twins             97559.
# ℹ 20 more rows
…
